{
    "first_name": "Stephen",
    "fppg": 47.94303797468354,
    "id": "15475-9524",
    "last_name": "Curry",
    "news": {
        "latest": "2016-05-02T18:35:15Z"
    },
    "played": 79,
    "player_card_url": "https://www.fanduel.com/e/Player/9524/Stats/15475",
    "position": "PG",
    "removed": false,
    "salary": 10600,
    "starting_order": null,
    "team": {
        "_members": [
                     "687"
                     ],
        "_ref": "teams.id"
    }
}
